20;20;1.000000;1.000000
10.063305;9.993229
8
1;1.071575 18.9583911;8.825503 11.073826
1;0.971955 0.5659091;8.724832 9.026846
1;19.062884 0.9742561;10.469799 9.194631
1;18.756436 18.5251321;11.208054 10.838926
1;0.942173 9.4467111;9.395973 9.932886
1;18.456961 10.1506681;10.872483 10.033557
1;9.689816 0.5909101;9.924586 8.897569
1;9.732230 19.5741651;9.972043 11.602608
