5;5;0.600000;0.600000
1.471642;1.553341;r;1.500320;0.391878
-0.053332;-0.325662
-0.306259;-0.122903
0.320455;0.078795
0.319897;-0.081031
0.112719;-0.310152
-0.089027;-0.317764
-0.243113;0.223150
-0.016060;0.329609
0.217400;0.248269
0.142413;-0.297689
-0.062509;-0.324026
-0.329944;-0.006064
0.118018;-0.308175
0.321609;0.073943
0.078684;-0.320482
0.048975;-0.326346
-0.192124;-0.268307
0.028051;-0.328806
0.236922;-0.229713
0.058051;-0.324854
-0.053198;-0.325684
-0.071856;-0.322082
0.040490;-0.327507
0.149384;-0.294252
0.144951;-0.296461
