15;15
17.532795;-22.778368
21.308346;-26.974974
28.477463;-35.696594
58.000000;-70.500000
25.019493;-36.343487
14.026629;-29.242222
6.726286;-27.404736
0.831421;-24.069960
-5.084953;-23.306683
-11.423819;-24.679987
-18.984884;-30.309742
-16.457588;-23.181524
-16.189232;-19.350611
-17.097178;-16.770533
-18.973326;-14.849187
15.691948;-20.312597
18.246681;-22.931498
21.861563;-27.338657
26.640709;-34.957809
17.588938;-29.503256
10.032786;-27.392611
3.882893;-28.573410
-1.906736;-25.163742
-8.462949;-25.457830
-16.596731;-30.300503
-33.500000;-58.500000
-20.968885;-29.370253
-19.193520;-22.082607
-19.754538;-18.224049
-21.847080;-15.680939
15.779222;-18.809128
18.250334;-20.983618
21.602163;-24.483114
21.600065;-27.728125
16.788692;-28.335545
9.587760;-27.906239
3.871153;-33.150490
-1.386184;-25.486540
-7.545805;-23.365849
-14.434386;-24.215906
-22.442822;-29.473713
-19.958305;-22.456945
-19.864445;-18.547792
-21.419580;-15.916127
-24.731312;-14.037313
16.954132;-18.449568
20.173996;-20.884489
25.781479;-25.159576
22.061462;-26.762575
19.592731;-32.339672
9.984926;-33.271496
3.500000;-67.000000
-0.677300;-30.683914
-7.541288;-24.318100
-15.457774;-23.345087
-25.534382;-27.020653
-21.909504;-20.807579
-21.905514;-17.243019
-24.249289;-14.855336
-29.494249;-13.301536
19.962914;-18.050907
26.007893;-21.834215
52.000000;-35.000000
28.204567;-28.326288
42.500000;-60.000000
15.587781;-30.102505
5.664987;-31.061501
-1.649823;-23.007385
-10.248254;-21.126942
-21.567301;-23.867548
-53.500000;-51.000000
-27.994030;-22.466999
-26.102690;-16.664114
-29.417202;-13.929308
-39.469070;-13.012602
17.249279;-12.336617
20.673834;-14.231620
26.383942;-18.584940
24.022461;-17.281252
20.692087;-23.698257
11.034152;-19.028809
3.567834;-19.315260
-3.287417;-14.582458
-10.735527;-13.421340
-19.136812;-13.947201
-29.582418;-17.685843
-26.944754;-12.934408
-29.462313;-11.012309
-38.787853;-10.929645
-79.500000;-18.000000
16.864016;-7.182555
19.877859;-7.909500
23.879959;-10.078856
28.116102;-8.313821
19.009474;-12.141721
10.341967;-10.755936
3.044188;-10.821365
-3.825135;-7.312703
-11.241257;-6.652565
-19.739246;-6.431488
-30.855814;-6.453090
-26.624571;-5.864364
-27.140837;-5.342195
-31.287390;-5.270955
-41.415508;-6.520336
18.036200;-2.475132
21.978292;-2.368428
28.859518;-3.293795
66.500000;0.500000
24.347641;-3.944475
12.057346;-3.845770
3.281711;-3.726185
s
-13.408064;-0.581584
-25.450712;-0.128545
-63.500000;2.000000
-31.427576;0.065289
-28.153332;-0.144000
-30.015867;-0.081218
-35.899525;0.180275
16.403595;1.879510
19.297302;2.639165
21.937435;1.649691
27.717085;2.926757
17.405106;1.814939
9.225852;1.986093
2.212214;2.517728
-4.277992;5.804829
-11.353829;5.173451
-19.536278;5.382091
-30.298536;6.207254
-26.139990;5.250837
-26.525335;4.786899
-30.228376;5.087599
-39.041748;7.234083
16.268330;6.672758
19.355173;8.479686
20.336119;8.061671
24.066921;11.530507
15.751145;9.013742
8.274287;8.520176
1.693447;9.417720
-4.233325;13.718291
-10.908842;11.948411
-18.529869;12.537983
-27.709148;16.307575
-25.706451;11.973924
-27.956411;10.469311
-35.917446;11.289620
-69.500000;22.000000
18.226082;11.914996
23.179842;15.453737
23.408115;16.080103
43.000000;34.500000
18.861284;17.690046
9.621297;15.699733
2.459474;17.267832
-3.276133;24.919203
-10.462228;19.984854
-20.037226;21.894131
-44.500000;45.500000
-25.884035;20.657598
-24.768572;15.473832
-27.836544;13.283630
-36.486275;13.372608
21.583281;16.234941
40.500000;27.500000
22.701105;17.936340
22.501202;20.117455
15.788193;21.160892
8.553917;20.978010
2.371528;26.502056
-0.500000;62.500000
-6.910909;28.033997
-14.306890;23.876261
-23.330038;26.711075
-20.641582;20.548042
-20.839579;16.919247
-23.015919;14.607441
-27.663605;13.373272
16.782532;14.928058
21.586706;18.138567
18.314178;17.782995
18.553217;21.068422
16.796612;28.082602
9.033250;22.748423
2.869354;23.117134
-2.009086;29.822002
-7.559737;24.679703
-14.148033;25.280554
-22.104414;31.915009
-19.546135;23.420513
-19.386703;18.915785
-20.757244;16.042755
-23.693153;14.171723
14.542518;15.952067
17.313705;18.644636
16.812401;21.202484
18.944698;28.876846
33.500000;65.500000
12.422198;30.650276
4.058555;25.619469
-2.152605;27.531607
-8.614843;27.291241
-16.976078;33.589638
-36.500000;72.000000
-21.421589;32.857498
-19.256212;23.692123
-19.567732;19.071512
-21.356720;16.204153
12.617765;13.977436
14.542518;15.952067
14.254393;17.476217
14.989941;21.351633
15.860993;29.917021
8.376410;22.915174
2.685805;21.164604
-2.253020;22.821621
-7.366731;22.563408
-13.164665;25.119738
-20.505131;33.272434
-17.660120;24.088631
-17.162230;19.419344
-17.831583;16.450140
-19.421215;14.386468
