20;20;1.000000;1.000000
10.000000;9.960938
0.203748;-0.979023
0.159784;-0.987152
0.121757;-0.992560
0.091448;-0.995810
0.069067;-0.997612
0.052609;-0.998615
0.039399;-0.999224
0.027381;-0.999625
0.015109;-0.999886
0.002141;-0.999998
-0.011016;-0.999939
-0.023808;-0.999717
-0.036541;-0.999332
-0.049690;-0.998765
-0.064431;-0.997922
-0.083274;-0.996527
-0.109316;-0.994007
-0.144092;-0.989564
-0.186826;-0.982393
-0.235315;-0.971919
0.221854;-0.975080
0.166901;-0.985974
0.119144;-0.992877
0.082226;-0.996614
0.058671;-0.998277
0.044621;-0.999004
0.034083;-0.999419
0.024990;-0.999688
0.014646;-0.999893
0.002550;-0.999997
-0.009974;-0.999950
-0.021237;-0.999774
-0.032699;-0.999465
-0.043700;-0.999045
-0.055430;-0.998463
-0.072088;-0.997398
-0.101129;-0.994873
-0.143967;-0.989582
-0.197526;-0.980298
-0.257783;-0.966203
0.250003;-0.968245
0.179309;-0.983793
0.116231;-0.993222
0.065440;-0.997857
0.036939;-0.999318
0.032815;-0.999461
0.023598;-0.999722
0.021536;-0.999768
0.014064;-0.999901
0.003266;-0.999995
-0.008841;-0.999961
-0.015804;-0.999875
-0.028111;-0.999605
-0.034699;-0.999398
-0.041859;-0.999124
-0.048802;-0.998808
-0.088039;-0.996117
-0.145577;-0.989347
-0.215576;-0.976487
-0.292332;-0.956317
0.297282;-0.954790
0.205133;-0.978734
0.120867;-0.992669
0.051059;-0.998696
0.002332;-0.999997
0.024955;-0.999689
0.011587;-0.999933
0.018698;-0.999825
0.012765;-0.999919
0.004468;-0.999990
-0.008150;-0.999967
-0.009541;-0.999954
-0.025530;-0.999674
-0.023322;-0.999728
-0.030969;-0.999520
-0.016366;-0.999866
-0.078981;-0.996876
-0.156687;-0.987648
-0.249780;-0.968303
-0.348609;-0.937268
0.379048;-0.925377
0.258752;-0.965944
0.145526;-0.989354
0.057433;-0.998349
0.003444;-0.999994
0.026739;-0.999642
0.012348;-0.999924
0.019125;-0.999817
0.012914;-0.999917
0.005330;-0.999986
-0.008124;-0.999967
-0.010029;-0.999950
-0.026367;-0.999652
-0.022766;-0.999741
-0.032212;-0.999481
-0.018833;-0.999823
-0.088906;-0.996040
-0.190297;-0.981726
-0.315807;-0.948824
-0.441912;-0.897058
0.517121;-0.855913
0.364529;-0.931192
0.204079;-0.978954
0.079029;-0.996872
0.005255;-0.999986
0.033258;-0.999447
0.013607;-0.999907
0.021511;-0.999769
0.013299;-0.999912
0.006008;-0.999982
-0.008563;-0.999963
-0.010733;-0.999942
-0.029140;-0.999575
-0.023002;-0.999735
-0.038363;-0.999264
-0.024476;-0.999700
-0.119408;-0.992845
-0.264746;-0.964318
-0.439412;-0.898286
-0.589659;-0.807652
0.719584;-0.694405
0.560380;-0.828235
0.328247;-0.944592
0.122416;-0.992479
0.008096;-0.999967
0.044320;-0.999017
0.015309;-0.999883
0.025349;-0.999679
0.013805;-0.999905
0.006919;-0.999976
-0.009453;-0.999955
-0.011633;-0.999932
-0.033585;-0.999436
-0.024910;-0.999690
-0.048609;-0.998818
-0.033594;-0.999436
-0.181820;-0.983332
-0.417073;-0.908873
-0.648485;-0.761227
-0.782340;-0.622852
0.911082;-0.412226
0.830746;-0.556652
0.584947;-0.811072
0.215172;-0.976576
0.012648;-0.999920
0.062400;-0.998051
0.017463;-0.999848
0.031123;-0.999516
0.014390;-0.999896
0.008329;-0.999965
-0.011002;-0.999939
-0.012774;-0.999918
-0.040450;-0.999182
-0.027590;-0.999619
-0.064761;-0.997901
-0.048395;-0.998828
-0.313253;-0.949670
-0.693240;-0.720707
-0.884949;-0.465687
-0.936148;-0.351605
0.989459;-0.144811
0.981195;-0.193021
0.912674;-0.408687
0.444455;-0.895801
0.019787;-0.999804
0.095585;-0.995421
0.019710;-0.999806
0.041574;-0.999135
0.015061;-0.999887
0.011033;-0.999939
-0.014370;-0.999897
-0.014410;-0.999896
-0.053750;-0.998554
-0.030595;-0.999532
-0.092807;-0.995684
-0.072360;-0.997379
-0.592277;-0.805735
-0.947428;-0.319969
-0.987907;-0.155047
-0.991563;-0.129627
0.999820;-0.018984
0.999791;-0.020444
0.998949;-0.045829
0.907362;-0.420351
0.034694;-0.999398
0.215128;-0.976586
0.023193;-0.999731
0.090283;-0.995916
0.016733;-0.999860
0.023277;-0.999729
-0.035366;-0.999374
-0.036979;-0.999316
-0.116608;-0.993178
-0.036484;-0.999334
-0.193846;-0.981032
-0.134934;-0.990855
-0.936099;-0.351736
-0.998697;-0.051039
-0.999537;-0.030439
-0.999425;-0.033919
0.999996;0.002791
0.999990;0.004414
0.999818;0.019080
0.940464;0.339893
0.103301;0.994650
0.377257;0.926108
0.007717;0.999970
0.084693;0.996407
0.000354;1.000000
0.013082;0.999914
-0.033340;0.999444
-0.009736;0.999953
-0.129575;0.991570
-0.029993;0.999550
-0.360983;0.932572
-0.073389;0.997303
-0.969067;0.246800
-0.999997;0.002295
-0.999907;-0.013654
-0.999922;-0.012505
0.995265;0.097201
0.990696;0.136091
0.947479;0.319817
0.503479;0.864008
0.053654;0.998560
0.118403;0.992966
0.001589;0.999999
0.031406;0.999507
-0.000664;1.000000
0.003029;0.999995
-0.014738;0.999891
-0.007371;0.999973
-0.049386;0.998780
-0.020823;0.999783
-0.116631;0.993175
-0.039749;0.999210
-0.603737;0.797183
-0.961632;0.274343
-0.994016;0.109238
-0.996782;0.080163
0.940824;0.338897
0.879587;0.475738
0.657327;0.753605
0.243659;0.969861
0.032501;0.999472
0.070323;0.997524
0.000290;1.000000
0.020351;0.999793
-0.001238;0.999999
0.000906;1.000000
-0.011173;0.999938
-0.006830;0.999977
-0.034971;0.999388
-0.017506;0.999847
-0.073114;0.997324
-0.027127;0.999632
-0.306029;0.952022
-0.705772;0.708439
-0.900386;0.435093
-0.950539;0.310605
0.767990;0.640462
0.615277;0.788311
0.369868;0.929084
0.134722;0.990883
0.020501;0.999790
0.046206;0.998932
-0.000688;1.000000
0.014293;0.999898
-0.001723;0.999999
-0.000218;1.000000
-0.009460;0.999955
-0.006124;0.999981
-0.027661;0.999617
-0.015172;0.999885
-0.051204;0.998688
-0.018275;0.999833
-0.172381;0.985030
-0.413063;0.910703
-0.653215;0.757172
-0.794364;0.607441
0.549153;0.835722
0.390900;0.920433
0.220124;0.975472
0.083177;0.996535
0.012880;0.999917
0.031664;0.999499
-0.002305;0.999997
0.010185;0.999948
-0.002118;0.999998
-0.000976;1.000000
-0.008401;0.999965
-0.005450;0.999985
-0.022883;0.999738
-0.013574;0.999908
-0.037850;0.999283
-0.012433;0.999923
-0.109162;0.994024
-0.252095;0.967703
-0.427646;0.903946
-0.584695;0.811254
0.386779;0.922172
0.261397;0.965231
0.145268;0.989392
0.055885;0.998437
0.007901;0.999969
0.022545;0.999746
-0.004198;0.999991
0.007537;0.999972
-0.002419;0.999997
-0.001462;0.999999
-0.007754;0.999970
-0.005171;0.999987
-0.019712;0.999806
-0.012547;0.999921
-0.029419;0.999567
-0.008870;0.999961
-0.076335;0.997082
-0.171500;0.985184
-0.293807;0.955865
-0.422565;0.906333
0.286975;0.957938
0.190854;0.981618
0.106050;0.994361
0.040564;0.999177
0.004990;0.999988
0.017068;0.999854
-0.005401;0.999985
0.006860;0.999977
-0.002308;0.999997
-0.001590;0.999999
-0.007587;0.999971
-0.004826;0.999988
-0.018125;0.999836
-0.011935;0.999929
-0.024425;0.999702
-0.006732;0.999977
-0.059232;0.998244
-0.130801;0.991409
-0.221081;0.975256
-0.321031;0.947069
0.228304;0.973590
0.153077;0.988214
0.086657;0.996238
0.032829;0.999461
0.003264;0.999995
0.015349;0.999882
-0.005520;0.999985
0.008348;0.999965
0.005297;0.999986
-0.001401;0.999999
-0.008551;0.999963
-0.010365;0.999946
-0.019005;0.999819
-0.011611;0.999933
-0.023538;0.999723
-0.005615;0.999984
-0.054762;0.998499
-0.113032;0.993591
-0.182807;0.983149
-0.260810;0.965390
0.194416;0.980919
0.134693;0.990887
0.081621;0.996663
0.035888;0.999356
0.004056;0.999992
0.020439;0.999791
0.012721;0.999919
0.012468;0.999922
0.007347;0.999973
-0.001195;0.999999
-0.010099;0.999949
-0.017440;0.999848
-0.022875;0.999738
-0.022329;0.999751
-0.031728;0.999497
-0.036276;0.999342
-0.065511;0.997852
-0.109746;0.993960
-0.163924;0.986473
-0.225377;0.974272
0.175031;0.984563
0.127474;0.991842
0.086175;0.996280
0.053669;0.998559
0.036007;0.999352
0.030432;0.999537
0.023723;0.999719
0.016989;0.999856
0.008813;0.999961
-0.001016;1.000000
-0.011117;0.999938
-0.020298;0.999794
-0.028005;0.999608
-0.034766;0.999395
-0.043817;0.999040
-0.056839;0.998383
-0.079185;0.996860
-0.112622;0.993638
-0.155062;0.987905
-0.204121;0.978946
