20;20;1.000000;1.000000
9.843750;10.039062
0.737508;-0.675338
0.687005;-0.726653
0.621449;-0.783454
0.536078;-0.844168
0.425542;-0.904939
0.285670;-0.958328
0.117323;-0.993094
-0.069094;-0.997610
-0.253896;-0.967232
-0.416874;-0.908964
-0.547182;-0.837014
-0.644885;-0.764280
-0.715955;-0.698146
-0.767435;-0.641127
-0.805190;-0.593016
-0.833480;-0.552550
-0.855198;-0.518301
-0.872268;-0.489028
-0.885962;-0.463758
-0.897131;-0.441765
0.778740;-0.627347
0.734778;-0.678307
0.676948;-0.736031
0.600162;-0.799879
0.497787;-0.867299
0.362650;-0.931926
0.190945;-0.981601
-0.010243;-0.999948
-0.218197;-0.975905
-0.403961;-0.914776
-0.550032;-0.835143
-0.655792;-0.754942
-0.729700;-0.683768
-0.781332;-0.624116
-0.818155;-0.574997
-0.845232;-0.534400
-0.865792;-0.500404
-0.881861;-0.471509
-0.894714;-0.446639
-0.905175;-0.425040
0.815856;-0.578255
0.778122;-0.628113
0.728009;-0.685567
0.660560;-0.750773
0.568563;-0.822640
0.442373;-0.896831
0.272525;-0.962149
0.059112;-0.998251
-0.175034;-0.984562
-0.389251;-0.921132
-0.554685;-0.832060
-0.669279;-0.743011
-0.745439;-0.666574
-0.796404;-0.604765
-0.831671;-0.555268
-0.857166;-0.515040
-0.876391;-0.481600
-0.891393;-0.453231
-0.903392;-0.428815
-0.913150;-0.407624
0.848876;-0.528593
0.816807;-0.576911
0.773921;-0.633282
0.715778;-0.698328
0.635439;-0.772151
0.522047;-0.852917
0.360769;-0.932655
0.140775;-0.990042
-0.121652;-0.992573
-0.372043;-0.928216
-0.561819;-0.827260
-0.685908;-0.727688
-0.763247;-0.646107
-0.812426;-0.583065
-0.845431;-0.534085
-0.869015;-0.494786
-0.886807;-0.462141
-0.900751;-0.434335
-0.911938;-0.410328
-0.921029;-0.389494
0.878026;-0.478612
0.850927;-0.525284
0.814404;-0.580299
0.764744;-0.644335
0.696051;-0.717992
0.598004;-0.801493
0.452548;-0.891740
0.235767;-0.971810
-0.054082;-0.998537
-0.351205;-0.936299
-0.572442;-0.819945
-0.706281;-0.707931
-0.782982;-0.622044
-0.828926;-0.559358
-0.858957;-0.512048
-0.880434;-0.474169
-0.896845;-0.442345
-0.909854;-0.414930
-0.920330;-0.391142
-0.928817;-0.370539
0.903702;-0.428161
0.880897;-0.473308
0.849686;-0.527289
0.807032;-0.590508
0.748527;-0.663105
0.666142;-0.745825
0.542438;-0.840096
0.342742;-0.939429
0.033081;-0.999453
-0.324843;-0.945768
-0.588068;-0.808811
-0.730888;-0.682498
-0.804069;-0.594536
-0.845055;-0.534679
-0.871562;-0.490286
-0.891029;-0.453947
-0.906358;-0.422511
-0.918690;-0.394978
-0.928612;-0.371052
-0.936558;-0.350511
0.926375;-0.376602
0.907387;-0.420297
0.880551;-0.473952
0.843093;-0.537768
0.791942;-0.610597
0.722634;-0.691231
0.622918;-0.782287
0.455527;-0.890222
0.145829;-0.989310
-0.289726;-0.957110
-0.610927;-0.791687
-0.759679;-0.650298
-0.825136;-0.564934
-0.859401;-0.511302
-0.882335;-0.470621
-0.900450;-0.434960
-0.915350;-0.402659
-0.927398;-0.374077
-0.936920;-0.349544
-0.944349;-0.328945
0.946449;-0.322854
0.931164;-0.364601
0.908280;-0.418363
0.874491;-0.485042
0.826902;-0.562346
0.764713;-0.644371
0.685369;-0.728196
0.561063;-0.827773
0.286230;-0.958161
-0.240495;-0.970650
-0.644024;-0.765005
-0.791179;-0.611585
-0.843477;-0.537165
-0.869722;-0.493542
-0.890214;-0.455543
-0.908650;-0.417558
-0.924188;-0.381937
-0.936345;-0.351082
-0.945496;-0.325634
-0.952309;-0.305134
0.964053;-0.265711
0.952751;-0.303751
0.934336;-0.356393
0.904109;-0.427301
0.856683;-0.515843
0.791802;-0.610777
0.720767;-0.693178
0.640334;-0.768096
0.441340;-0.897340
-0.169419;-0.985544
-0.690429;-0.723400
-0.821206;-0.570631
-0.854348;-0.519701
-0.872428;-0.488743
-0.894479;-0.447110
-0.916582;-0.399847
-0.933906;-0.357520
-0.946157;-0.323707
-0.954619;-0.297829
-0.960523;-0.278201
0.978849;-0.204585
0.971883;-0.235464
0.959335;-0.282271
0.935426;-0.353521
0.889387;-0.457156
0.810548;-0.585672
0.718349;-0.695683
0.671812;-0.740722
0.575953;-0.817483
-0.067926;-0.997690
-0.751077;-0.660214
-0.842676;-0.538421
-0.850490;-0.525991
-0.861269;-0.508149
-0.897701;-0.440605
-0.927662;-0.373422
-0.946289;-0.323323
-0.957465;-0.288550
-0.964401;-0.264443
-0.968920;-0.247376
0.990076;-0.140531
0.987137;-0.159877
0.981320;-0.192381
0.968344;-0.249619
0.935804;-0.352521
0.853680;-0.520797
0.703307;-0.710887
0.649756;-0.760143
0.660668;-0.750678
0.093834;-0.995588
-0.821528;-0.570168
-0.847947;-0.530082
-0.830417;-0.557142
-0.857780;-0.514018
-0.916436;-0.400180
-0.947765;-0.318971
-0.962533;-0.271163
-0.970118;-0.242635
-0.974458;-0.224572
-0.977160;-0.212505
0.997047;-0.076789
0.996647;-0.081819
0.995716;-0.092468
0.993240;-0.116078
0.984966;-0.172748
0.951683;-0.307082
0.841350;-0.540491
0.686455;-0.727172
0.691058;-0.722800
0.743408;-0.668839
-0.880457;-0.474126
-0.842563;-0.538599
-0.891987;-0.452060
-0.935505;-0.353312
-0.963869;-0.266376
-0.975341;-0.220705
-0.980025;-0.198874
-0.982390;-0.186843
-0.983779;-0.179386
-0.984655;-0.174512
0.999841;-0.017843
0.999951;-0.009871
1.000000;0.000501
0.999902;0.013977
0.999669;0.025730
0.999950;0.010006
0.997362;-0.072587
0.960655;-0.277744
0.731000;-0.682378
0.166948;0.985966
-0.851945;0.523631
-0.996492;-0.083694
-0.996485;-0.083776
-0.997989;-0.063391
-0.997088;-0.076258
-0.994575;-0.104020
-0.992783;-0.119922
-0.991783;-0.127931
-0.991198;-0.132387
-0.990801;-0.135325
0.999459;0.032889
0.998802;0.048929
0.997500;0.070665
0.994812;0.101733
0.989403;0.145192
0.984789;0.173756
0.983518;0.180810
0.981477;0.191578
0.908396;0.418111
0.100461;0.994941
-0.911191;0.411983
-0.996718;0.080953
-0.997944;0.064086
-0.998001;0.063205
-0.999534;0.030523
-0.999766;-0.021636
-0.998537;-0.054079
-0.997240;-0.074240
-0.996160;-0.087549
-0.995281;-0.097039
0.997196;0.074834
0.995588;0.093834
0.993124;0.117070
0.989430;0.145012
0.984652;0.174528
0.981999;0.188886
0.978534;0.206086
0.950247;0.311498
0.566329;0.824179
0.095085;0.995469
-0.342374;0.939564
-0.941580;0.336788
-0.991444;0.130530
-0.997026;0.077066
-0.998595;0.052995
-0.999721;0.023616
-0.999986;-0.005344
-0.999586;-0.028764
-0.998902;-0.046846
-0.998142;-0.060938
0.993934;0.109978
0.991585;0.129460
0.988519;0.151095
0.984789;0.173752
0.980733;0.195354
0.975270;0.221016
0.958699;0.284423
0.877207;0.480112
0.513590;0.858036
0.127182;0.991879
-0.271830;0.962345
-0.820263;0.571987
-0.964300;0.264813
-0.988939;0.148319
-0.995180;0.098063
-0.997891;0.064909
-0.999346;0.036159
-0.999938;0.011161
-0.999952;-0.009816
-0.999630;-0.027196
0.989997;0.141087
0.986938;0.161102
0.983121;0.182957
0.978356;0.206929
0.971798;0.235814
0.959535;0.281588
0.926628;0.375979
0.820274;0.571971
0.539995;0.841668
0.158549;0.987351
-0.282063;0.959396
-0.728899;0.684622
-0.918732;0.394881
-0.970889;0.239530
-0.987030;0.160538
-0.993616;0.112815
-0.996980;0.077661
-0.998799;0.048994
-0.999689;0.024951
-0.999989;0.004659
0.985402;0.170244
0.981439;0.191775
0.976362;0.216140
0.969462;0.245244
0.958744;0.284272
0.938442;0.345438
0.892410;0.451226
0.780582;0.625054
0.543407;0.839469
0.176095;0.984373
-0.271789;0.962357
-0.667133;0.744939
-0.869590;0.493774
-0.945304;0.326192
-0.973907;0.226946
-0.986386;0.164449
-0.992726;0.120394
-0.996269;0.086305
-0.998289;0.058477
-0.999382;0.035149
0.980103;0.198487
0.974969;0.222342
0.968158;0.250338
0.958451;0.285258
0.943033;0.332698
0.915315;0.402739
0.860249;0.509874
0.747135;0.664672
0.530523;0.847670
0.182430;0.983219
-0.249925;0.968265
-0.617306;0.786723
-0.823855;0.566801
-0.916469;0.400106
-0.957147;0.289602
-0.976466;0.215669
-0.986612;0.163086
-0.992394;0.123099
-0.995844;0.091077
-0.997915;0.064541
0.974100;0.226116
0.967560;0.252640
0.958707;0.284396
0.945918;0.324405
0.925896;0.377778
0.891864;0.452303
0.830198;0.557469
0.715544;0.698567
0.509367;0.860549
0.180721;0.983534
-0.226809;0.973939
-0.573938;0.818899
-0.782495;0.622656
-0.887232;0.461323
-0.938393;0.345570
-0.964572;0.263821
-0.978923;0.204228
-0.987315;0.158772
-0.992456;0.122602
-0.995680;0.092852
